Analysis
…
coffee %T>% 
  View() %>% 
  count(species, sort = TRUE)

# A tibble: 2 x 2
  species     n
  <chr>   <int>
1 Arabica  1310
2 Robusta    28

coffee %>% 
  count(species, variety, sort = TRUE)

# A tibble: 33 x 3
   species variety            n
   <chr>   <chr>          <int>
 1 Arabica Caturra          255
 2 Arabica Bourbon          226
 3 Arabica Typica           211
 4 Arabica <NA>             201
 5 Arabica Other            108
 6 Arabica Catuai            74
 7 Arabica Hawaiian Kona     44
 8 Arabica Yellow Bourbon    35
 9 Arabica Mundo Novo        33
10 Robusta <NA>              25
# ... with 23 more rows
…
coffee %>% 
  # Let's see % values are missing from data
  # Gives you a % complete basically 1.00 means 100% of obs present
  summarise(across(everything(), ~mean(!is.na(.)))) %>% 
  # Let's us see it as a column
  gather() %>% 
  # sort from complete data to less complete data
  arrange(desc(value)) %T>% 
  View()

# A tibble: 43 x 2
   key                value
   <chr>              <dbl>
 1 total_cup_points       1
 2 species                1
 3 number_of_bags         1
 4 bag_weight             1
 5 in_country_partner     1
 6 grading_date           1
 7 aroma                  1
 8 flavor                 1
 9 aftertaste             1
10 acidity                1
# ... with 33 more rows

coffee %>% 
  count(producer, sort = TRUE) # Lots of missing producers

# A tibble: 692 x 2
   producer                         n
   <chr>                        <int>
 1 <NA>                           231
 2 La Plata                        30
 3 Ipanema Agrícola SA             22
 4 Doi Tung Development Project    17
 5 Ipanema Agricola                12
 6 VARIOS                          12
 7 Ipanema Agricola S.A            11
 8 ROBERTO MONTERROSO              10
 9 AMILCAR LAPOLA                   9
10 LA PLATA                         9
# ... with 682 more rows

coffee %>% 
  count(company, sort = TRUE) # Lots missing here

# A tibble: 282 x 2
   company                              n
   <chr>                            <int>
 1 <NA>                               209
 2 unex guatemala, s.a.                86
 3 ipanema coffees                     50
 4 exportadora de cafe condor s.a      40
 5 kona pacific farmers cooperative    40
 6 racafe & cia s.c.a                  40
 7 blossom valley<U+5BB8><U+5DA7><U+570B><U+969B>              25
 8 carcafe ltda                        25
 9 nucoffee                            24
10 taiwan coffee laboratory            20
# ... with 272 more rows
…
